Material,Batch
48,AD
48,AI
48,AP
48,AR
48,AR MAJOR
48,AT
48,AW
48,MO
48,NA CONTAM
48,NA CONTAM.
48,NA PRESCRP
48,NA QUARAN.
48,NA REGRIND
48,NA SCRAP
48,NA UNDERLD
48,RU DRY
48,RU DRY PRM
48,RU ID
48,RU NEW
48,RU PC STRD
48,RU PREMIUM
48,RU PS
48,RU PS DRY
48,RU PS PREM
48,RU SD
48,RU STANDRD
48,VARIANCE
49,AD
49,AI
49,AP
49,AR
49,AR MAJOR
49,AT
49,AW
49,MO
49,NA CONTAM.
49,NA PRESCRP
49,NA QUARAN.
49,NA REGRIND
49,NA SCRAP
49,NA UNDERLD
49,RU DRY
49,RU DRY PRM
49,RU ID
49,RU NEW
49,RU PC STRD
49,RU PLUS PS
49,RU PREMIUM
49,RU PS
49,RU PS DRY
49,RU PS PREM
49,RU SD
49,RU STANDRD
49,VARIANCE
801,AD
801,AI
801,AP
801,AR
801,AR MAJOR
801,AT
801,AW
801,MO
801,NA CONTAM.
801,NA PRESCRP
801,NA QUARAN.
801,NA REGRIND
801,NA SCRAP
801,NA UNDERLD
801,RU DRY
801,RU DRY PRM
801,RU NEW
801,RU PREMIUM
801,RU STANDRD
801,VARIANCE
813,AD
813,AI
813,AP
813,AR
813,AR MAJOR
813,AT
813,AW
813,MO
813,NA SCRAP
813,NA UNDERLD
813,RU DRY
813,RU DRY PRM
813,RU NEW
813,RU PREMIUM
813,RU STANDRD
813,VARIANCE
816,AD
816,AI
816,AP
816,AR
816,AR MAJOR
816,AT
816,AW
816,MO
816,NA SCRAP
816,NA UNDERLD
816,RU DRY
816,RU DRY PRM
816,RU NEW
816,RU PREMIUM
816,RU STANDRD
816,VARIANCE
1162,AD
1162,AI
1162,AP
1162,AR
1162,AR MAJOR
1162,AW
1162,MO
1162,NA SCRAP
1162,NA UNDERLD
1162,RU DRY
1162,RU DRY PRM
1162,RU NEW
1162,RU PREMIUM
1162,RU STANDRD
1162,VARIANCE
1163,AD
1163,AI
1163,AP
1163,AR
1163,AR MAJOR
1163,AW
1163,MO
1163,NA SCRAP
1163,NA UNDERLD
1163,RU DRY
1163,RU DRY PRM
1163,RU NEW
1163,RU PREMIUM
1163,RU STANDRD
1163,VARIANCE
1164,AD
1164,AI
1164,AP
1164,AR
1164,AR MAJOR
1164,AW
1164,MO
1164,NA SCRAP
1164,NA UNDERLD
1164,RU DRY
1164,RU DRY PRM
1164,RU NEW
1164,RU PREMIUM
1164,RU STANDRD
1164,VARIANCE
1354,AD
1354,AI
1354,AP
1354,AR
1354,AR MAJOR
1354,AT
1354,AW
1354,MO
1354,NA SCRAP
1354,NA UNDERLD
1354,RU DRY
1354,RU DRY PRM
1354,RU NEW
1354,RU PREMIUM
1354,RU STANDRD
1354,VARIANCE
1355,AD
1355,AI
1355,AP
1355,AR
1355,AR MAJOR
1355,AT
1355,AW
1355,MO
1355,NA SCRAP
1355,NA UNDERLD
1355,RU DRY
1355,RU DRY PRM
1355,RU NEW
1355,RU PREMIUM
1355,RU STANDRD
1355,VARIANCE
1392,AD
1392,AI
1392,AP
1392,AR
1392,AR MAJOR
1392,AW
1392,MO
1392,NA SCRAP
1392,NA UNDERLD
1392,RU DRY
1392,RU DRY PRM
1392,RU NEW
1392,RU PREMIUM
1392,RU STANDRD
1392,VARIANCE
1393,AD
1393,AI
1393,AP
1393,AR
1393,AR MAJOR
1393,AW
1393,MO
1393,NA SCRAP
1393,NA UNDERLD
1393,RU DRY
1393,RU DRY PRM
1393,RU NEW
1393,RU PREMIUM
1393,RU STANDRD
1393,VARIANCE
1394,AD
1394,AI
1394,AP
1394,AR
1394,AR MAJOR
1394,AW
1394,MO
1394,NA SCRAP
1394,NA UNDERLD
1394,RU DRY
1394,RU DRY PRM
1394,RU NEW
1394,RU PREMIUM
1394,RU STANDRD
1394,VARIANCE
1602,AI
1602,AR
1602,AW
1602,MO
1602,NA SCRAP
1602,RU NEW
1602,RU STANDRD
1602,VARIANCE
1604,AI
1604,AR
1604,AW
1604,MO
1604,NA SCRAP
1604,RU NEW
1604,RU STANDRD
1604,VARIANCE
6500,RU STANDRD
6502,RU STANDRD
6504,RU STANDRD
6506,RU STANDRD
6507,RU STANDRD
6513,RU STANDRD
6514,RU STANDRD
6515,RU STANDRD
7200,AI
7200,AR
7200,AW
7200,MO
7200,NA SCRAP
7200,RU NEW
7200,RU STANDRD
7200,VARIANCE
7204,AI
7204,AR
7204,AW
7204,MO
7204,NA SCRAP
7204,RU NEW
7204,RU STANDRD
7204,VARIANCE
7205,AI
7205,AR
7205,AR MAJOR
7205,AT
7205,AW
7205,MO
7205,NA SCRAP
7205,RU NEW
7205,RU STANDRD
7205,VARIANCE
